all.vcd
$date
	Mon Dec 12 21:41:06 2016
$end
$version
	Icarus Verilog
$end
$timescale
	1s
$end
$scope module TestBench $end
$var reg 1 ! Clk $end
$var reg 1 " Reset $end
$var reg 1 # Start $end
$var integer 32 $ counter [31:0] $end
$var integer 32 % flush [31:0] $end
$var integer 32 & i [31:0] $end
$var integer 32 ' outfile [31:0] $end
$var integer 32 ( stall [31:0] $end
$scope module CPU $end
$var wire 32 ) ALU_out_MEM [31:0] $end
$var wire 32 * ALU_out_WB [31:0] $end
$var wire 32 + Immediate32_EX [31:0] $end
$var wire 5 , MUX3_out_MEM [4:0] $end
$var wire 5 - MUX3_out_WB [4:0] $end
$var wire 32 . Memdata_in [31:0] $end
$var wire 32 / Memdata_out_WB [31:0] $end
$var wire 5 0 RDaddr_EX [4:0] $end
$var wire 5 1 RSaddr_EX [4:0] $end
$var wire 32 2 RSdata_EX [31:0] $end
$var wire 5 3 RTaddr_EX [4:0] $end
$var wire 32 4 RTdata_EX [31:0] $end
$var wire 1 5 RegWrite_WB $end
$var wire 1 ! clk_i $end
$var wire 1 " rst_i $end
$var wire 1 # start_i $end
$var wire 32 6 jump_addr [31:0] $end
$var wire 32 7 inst_addr [31:0] $end
$var wire 32 8 inst [31:0] $end
$var wire 32 9 ShiftLeft32 [31:0] $end
$var wire 28 : ShiftLeft28 [27:0] $end
$var wire 1 ; RegWrite $end
$var wire 1 < RegDst $end
$var wire 32 = RTdata [31:0] $end
$var wire 5 > RTaddr [4:0] $end
$var wire 32 ? RSdata [31:0] $end
$var wire 5 @ RSaddr [4:0] $end
$var wire 5 A RDaddr [4:0] $end
$var wire 32 B PC_out [31:0] $end
$var wire 32 C PC_in [31:0] $end
$var wire 1 D PCWrite $end
$var wire 6 E Op [5:0] $end
$var wire 1 F NOP $end
$var wire 1 G MemtoReg $end
$var wire 32 H Memdata_out [31:0] $end
$var wire 1 I MemWrite $end
$var wire 1 J MemRead $end
$var wire 32 K MUX7_out [31:0] $end
$var wire 32 L MUX6_out [31:0] $end
$var wire 32 M MUX5_out [31:0] $end
$var wire 32 N MUX4_out [31:0] $end
$var wire 5 O MUX3_out [4:0] $end
$var wire 32 P MUX1_out [31:0] $end
$var wire 1 Q Jump $end
$var wire 32 R Immediate32 [31:0] $end
$var wire 16 S Immediate [15:0] $end
$var wire 1 T IF_ID_Write $end
$var wire 6 U Funct [5:0] $end
$var wire 2 V ForwardB [1:0] $end
$var wire 2 W ForwardA [1:0] $end
$var wire 1 X ExtOp $end
$var wire 1 Y Eq $end
$var wire 1 Z Branch $end
$var wire 32 [ Add_PC_out [31:0] $end
$var wire 32 \ ALU_out [31:0] $end
$var wire 1 ] ALUSrc $end
$var wire 2 ^ ALUOp [1:0] $end
$var wire 3 _ ALUCtrl [2:0] $end
$var reg 32 ` EX_MEM_ALU_out [31:0] $end
$var reg 5 a EX_MEM_MUX3_out [4:0] $end
$var reg 32 b EX_MEM_MUX7_out [31:0] $end
$var reg 1 c EX_MEM_MemRead $end
$var reg 1 d EX_MEM_MemWrite $end
$var reg 1 e EX_MEM_MemtoReg $end
$var reg 5 f EX_MEM_RDaddr [4:0] $end
$var reg 5 g EX_MEM_RSaddr [4:0] $end
$var reg 5 h EX_MEM_RTaddr [4:0] $end
$var reg 1 i EX_MEM_RegWrite $end
$var reg 2 j ID_EX_ALUOp [1:0] $end
$var reg 1 k ID_EX_ALUSrc $end
$var reg 32 l ID_EX_Immediate32 [31:0] $end
$var reg 1 m ID_EX_MemRead $end
$var reg 1 n ID_EX_MemWrite $end
$var reg 1 o ID_EX_MemtoReg $end
$var reg 5 p ID_EX_RDaddr [4:0] $end
$var reg 5 q ID_EX_RSaddr [4:0] $end
$var reg 32 r ID_EX_RSdata [31:0] $end
$var reg 5 s ID_EX_RTaddr [4:0] $end
$var reg 32 t ID_EX_RTdata [31:0] $end
$var reg 1 u ID_EX_RegDst $end
$var reg 1 v ID_EX_RegWrite $end
$var reg 32 w ID_EX_inst [31:0] $end
$var reg 32 x IF_ID_PC_out [31:0] $end
$var reg 32 y IF_ID_inst [31:0] $end
$var reg 32 z MEM_WB_ALU_out [31:0] $end
$var reg 5 { MEM_WB_MUX3_out [4:0] $end
$var reg 32 | MEM_WB_Memdata_out [31:0] $end
$var reg 1 } MEM_WB_MemtoReg $end
$var reg 1 ~ MEM_WB_RegWrite $end
$scope module ADD $end
$var wire 32 !" data2_i [31:0] $end
$var wire 32 "" data_o [31:0] $end
$var wire 32 #" data1_i [31:0] $end
$upscope $end
$scope module ALU $end
$var wire 32 $" dataout [31:0] $end
$var wire 32 %" data2 [31:0] $end
$var wire 32 &" data1 [31:0] $end
$var wire 3 '" ALUCtr [2:0] $end
$var reg 32 (" do [31:0] $end
$upscope $end
$scope module ALUCtr_unit $end
$var wire 3 )" ALUCtr [2:0] $end
$var wire 2 *" ALUOp [1:0] $end
$var wire 6 +" func [5:0] $end
$var reg 3 ," ac [2:0] $end
$upscope $end
$scope module Add_PC $end
$var wire 32 -" data2_i [31:0] $end
$var wire 32 ." data_o [31:0] $end
$var wire 32 /" data1_i [31:0] $end
$upscope $end
$scope module Control $end
$var wire 2 0" ALUOp [1:0] $end
$var wire 1 ] ALUSrc $end
$var wire 1 X ExtOp $end
$var wire 1 Q Jump $end
$var wire 1 J MemRead $end
$var wire 1 I MemWrite $end
$var wire 1 G MemtoReg $end
$var wire 1 < RegDst $end
$var wire 1 ; RegWrite $end
$var wire 6 1" op [5:0] $end
$var wire 1 Z Branch $end
$var reg 2 2" ao [1:0] $end
$var reg 1 3" as $end
$var reg 1 Z br $end
$var reg 1 4" ex $end
$var reg 1 5" jp $end
$var reg 1 6" mr $end
$var reg 1 7" mtr $end
$var reg 1 8" mw $end
$var reg 1 9" rd $end
$var reg 1 :" rw $end
$upscope $end
$scope module Data_Memory $end
$var wire 32 ;" Address_i [31:0] $end
$var wire 1 c MemRead_i $end
$var wire 1 d MemWrite_i $end
$var wire 32 <" Writedata_i [31:0] $end
$var wire 1 ! clk_i $end
$var wire 1 " rst_i $end
$var reg 32 =" Readdata_o [31:0] $end
$upscope $end
$scope module Equal $end
$var wire 32 >" data2_i [31:0] $end
$var wire 32 ?" data1_i [31:0] $end
$var wire 1 Y Eq_o $end
$upscope $end
$scope module FU $end
$var wire 5 @" EX_MEM_RegRd [4:0] $end
$var wire 1 i EX_MEM_RegWrite $end
$var wire 2 A" Forward_A [1:0] $end
$var wire 2 B" Forward_B [1:0] $end
$var wire 5 C" ID_EX_RegRs [4:0] $end
$var wire 5 D" ID_EX_RegRt [4:0] $end
$var wire 5 E" MEM_WB_RegRd [4:0] $end
$var wire 1 5 MEM_WB_RegWrite $end
$var reg 2 F" A [1:0] $end
$var reg 2 G" B [1:0] $end
$upscope $end
$scope module HD $end
$var wire 1 m ID_EX_MEM_Read $end
$var wire 5 H" ID_EX_RegRt [4:0] $end
$var wire 5 I" IF_ID_RegRs [4:0] $end
$var wire 5 J" IF_ID_RegRt [4:0] $end
$var wire 1 T IF_ID_Write $end
$var wire 1 F NOP $end
$var wire 1 D PC_Write $end
$var reg 1 K" ifid $end
$var reg 1 L" nop $end
$var reg 1 M" pc $end
$upscope $end
$scope module Instruction_Memory $end
$var wire 32 N" instr_o [31:0] $end
$var wire 32 O" addr_i [31:0] $end
$upscope $end
$scope module MUX1 $end
$var wire 32 P" data1_i [31:0] $end
$var wire 32 Q" data2_i [31:0] $end
$var wire 1 R" select_i $end
$var wire 32 S" data_o [31:0] $end
$var reg 32 T" data_out [31:0] $end
$upscope $end
$scope module MUX2 $end
$var wire 32 U" data1_i [31:0] $end
$var wire 32 V" data2_i [31:0] $end
$var wire 32 W" data_o [31:0] $end
$var wire 1 Q select_i $end
$var reg 32 X" data_out [31:0] $end
$upscope $end
$scope module MUX3 $end
$var wire 5 Y" data1_i [4:0] $end
$var wire 5 Z" data2_i [4:0] $end
$var wire 5 [" data_o [4:0] $end
$var wire 1 u select_i $end
$var reg 5 \" data_out [4:0] $end
$upscope $end
$scope module MUX4 $end
$var wire 32 ]" data2_i [31:0] $end
$var wire 32 ^" data_o [31:0] $end
$var wire 1 k select_i $end
$var wire 32 _" data1_i [31:0] $end
$var reg 32 `" data_out [31:0] $end
$upscope $end
$scope module MUX5 $end
$var wire 32 a" data1_i [31:0] $end
$var wire 32 b" data2_i [31:0] $end
$var wire 32 c" data_o [31:0] $end
$var wire 1 } select_i $end
$var reg 32 d" data_out [31:0] $end
$upscope $end
$scope module MUX6 $end
$var wire 32 e" data1_i [31:0] $end
$var wire 32 f" data2_i [31:0] $end
$var wire 32 g" data3_i [31:0] $end
$var wire 32 h" data_o [31:0] $end
$var wire 2 i" select_i [1:0] $end
$var reg 32 j" data_out [31:0] $end
$upscope $end
$scope module MUX7 $end
$var wire 32 k" data1_i [31:0] $end
$var wire 32 l" data2_i [31:0] $end
$var wire 32 m" data3_i [31:0] $end
$var wire 32 n" data_o [31:0] $end
$var wire 2 o" select_i [1:0] $end
$var reg 32 p" data_out [31:0] $end
$upscope $end
$scope module PC $end
$var wire 1 D PCWrite_i $end
$var wire 1 ! clk_i $end
$var wire 32 q" pc_i [31:0] $end
$var wire 1 " rst_i $end
$var wire 1 # start_i $end
$var reg 32 r" pc_o [31:0] $end
$upscope $end
$scope module Registers $end
$var wire 5 s" RDaddr_i [4:0] $end
$var wire 32 t" RDdata_i [31:0] $end
$var wire 5 u" RSaddr_i [4:0] $end
$var wire 32 v" RSdata_o [31:0] $end
$var wire 5 w" RTaddr_i [4:0] $end
$var wire 32 x" RTdata_o [31:0] $end
$var wire 1 5 RegWrite_i $end
$var wire 1 ! clk_i $end
$var wire 1 " rst_i $end
$upscope $end
$scope module Shift_Left_2 $end
$var wire 32 y" data_o [31:0] $end
$var wire 32 z" data_i [31:0] $end
$upscope $end
$scope module Shift_Left_2_26to28 $end
$var wire 26 {" data_i [25:0] $end
$var wire 28 |" data_o [27:0] $end
$upscope $end
$scope module Sign_Extend $end
$var wire 16 }" data_i [15:0] $end
$var wire 32 ~" data_o [31:0] $end
$upscope $end
$upscope $end
$upscope $end
$enddefinitions $end
#12
$dumpvars
b0xxxxxxxxxxxxxxxx ~"
bx }"
bx00 |"
bx {"
b0xxxxxxxxxxxxxxxx z"
b0xxxxxxxxxxxxxxxx00 y"
bx x"
bx w"
bx v"
bx u"
bx t"
bx s"
b0 r"
b100 q"
bx p"
bx o"
bx n"
bx m"
bx l"
bx k"
bx j"
bx i"
bx h"
bx g"
bx f"
bx e"
bx d"
bx c"
bx b"
bx a"
bx `"
bx _"
bx ^"
b0xxxxxxxxxxxxxxxx ]"
bx \"
bx ["
bx Z"
bx Y"
b100 X"
b100 W"
b0xxxxxxxxxxxxxxxxxxxxxxxxxx00 V"
b100 U"
b100 T"
b100 S"
xR"
bx Q"
b100 P"
b0 O"
b100000000001000000000000000000 N"
1M"
0L"
1K"
bx J"
bx I"
bx H"
bx G"
bx F"
bx E"
bx D"
bx C"
bx B"
bx A"
bx @"
bx ?"
bx >"
bx ="
bx <"
bx ;"
x:"
x9"
x8"
x7"
x6"
x5"
x4"
x3"
bx 2"
bx 1"
bx 0"
b0 /"
b100 ."
b100 -"
bx ,"
bx +"
b0 *"
bx )"
bx ("
bx '"
bx &"
bx %"
bx $"
b0xxxxxxxxxxxxxxxx00 #"
bx ""
bx !"
x~
x}
bx |
bx {
bx z
bx y
bx x
bx w
0v
0u
bx t
bx s
bx r
bx q
bx p
0o
0n
0m
b0xxxxxxxxxxxxxxxx l
0k
b0 j
xi
bx h
bx g
bx f
xe
xd
xc
bx b
bx a
bx `
bx _
bx ^
x]
bx \
bx [
xZ
xY
xX
bx W
bx V
bx U
1T
bx S
b0xxxxxxxxxxxxxxxx R
xQ
b100 P
bx O
bx N
bx M
bx L
bx K
xJ
xI
bx H
xG
0F
bx E
1D
b100 C
b100 B
bx A
bx @
bx ?
bx >
bx =
x<
x;
bx00 :
b0xxxxxxxxxxxxxxxx00 9
b100000000001000000000000000000 8
b0 7
b0xxxxxxxxxxxxxxxxxxxxxxxxxx00 6
x5
bx 4
bx 3
bx 2
bx 1
bx 0
bx /
bx .
bx -
bx ,
b0xxxxxxxxxxxxxxxx +
bx *
bx )
b0 (
b11 '
b100000 &
b0 %
b0 $
1#
1"
1!
$end
#25
0!
#50
1Y
0R"
b1000 C
b1000 W"
b1000 q"
b1000 X"
b100 [
b100 ""
b100 Q"
b0 9
b0 #"
b0 y"
b1 ^
b1 0"
b1 2"
0J
06"
0X
04"
0Q
05"
0Z
0I
08"
1;
1:"
0G
07"
1]
13"
0<
09"
b100000000000000000000 6
b100000000000000000000 V"
b100000000000000000000 :
b100000000000000000000 |"
b100000000010000000000000000000 8
b100000000010000000000000000000 N"
b1000 P
b1000 S"
b1000 T"
b1000 U"
b0 V
b0 B"
b0 o"
b0 G"
b0 W
b0 A"
b0 i"
b0 F"
b0 ?
b0 ?"
b0 v"
b0 @
b0 I"
b0 u"
b0 =
b0 >"
b0 x"
b100 >
b100 J"
b100 w"
b0 A
b1000 E
b0 U
b0 R
b0 z"
b0 ~"
b0 S
b0 }"
b1000 1"
b1000000000000000000 {"
b1000 B
b1000 ."
b1000 P"
b100 7
b100 /"
b100 O"
b100 r"
0d
0c
0i
0e
xu
bx j
bx *"
xk
xn
xm
xv
xo
b100 x
b100 !"
b100000000001000000000000000000 y
b1 $
1!
#75
0!
#100
b0 \
b0 $"
b0 ("
b1100 C
b1100 W"
b1100 q"
b1100 X"
b1000000000000000000000 6
b1000000000000000000000 V"
b1000000000000000000000 :
b1000000000000000000000 |"
b100000000010010000000000000001 8
b100000000010010000000000000001 N"
b0 +"
b0 K
b0 _"
b0 n"
b0 p"
b0 L
b0 &"
b0 h"
b0 j"
b100 O
b100 ["
b100 \"
b0 _
b0 '"
b0 )"
b0 ,"
b0 N
b0 %"
b0 ^"
b0 `"
b1100 P
b1100 S"
b1100 T"
b1100 U"
b1000 >
b1000 J"
b1000 w"
b10000000000000000000 {"
b1100 B
b1100 ."
b1100 P"
b1000 7
b1000 /"
b1000 O"
b1000 r"
05
0~
0}
xd
xc
xi
xe
b100000000001000000000000000000 w
b0 0
b0 Z"
b0 p
b100 3
b100 D"
b100 H"
b100 Y"
b100 s
b0 1
b0 C"
b0 q
b0 +
b0 ]"
b0 l
b0 4
b0 k"
b0 t
b0 2
b0 e"
b0 r
0u
b1 j
b1 *"
1k
0n
0m
1v
0o
b1000 [
b1000 ""
b1000 Q"
b1000 x
b1000 !"
b100000000010000000000000000000 y
b10 $
1!
#125
0!
#150
b10000 C
b10000 W"
b10000 q"
b10000 X"
b100 9
b100 #"
b100 y"
b1001000000000000000100 6
b1001000000000000000100 V"
b1001000000000000000100 :
b1001000000000000000100 |"
b100000000100010000000000000000 8
b100000000100010000000000000000 N"
b1000 O
b1000 ["
b1000 \"
b10000 P
b10000 S"
b10000 T"
b10000 U"
b1001 >
b1001 J"
b1001 w"
b1 U
b1 R
b1 z"
b1 ~"
b1 S
b1 }"
b10010000000000000001 {"
b10000 B
b10000 ."
b10000 P"
b1100 7
b1100 /"
b1100 O"
b1100 r"
x5
x~
x}
b0 f
b100 h
b0 g
b100 ,
b100 @"
b100 a
b0 .
b0 <"
b0 b
b0 )
b0 ;"
b0 g"
b0 m"
b0 `
0d
0c
1i
0e
b100000000010000000000000000000 w
b1000 3
b1000 D"
b1000 H"
b1000 Y"
b1000 s
b10000 [
b10000 ""
b10000 Q"
b1100 x
b1100 !"
b100000000010010000000000000001 y
b11 $
1!
#175
0!
#200
b1 \
b1 $"
b1 ("
b10100 C
b10100 W"
b10100 q"
b10100 X"
b0 9
b0 #"
b0 y"
b10001000000000000000000 6
b10001000000000000000000 V"
b10001000000000000000000 :
b10001000000000000000000 |"
b100000000100100000000000000001 8
b100000000100100000000000000001 N"
b0 M
b0 c"
b0 f"
b0 l"
b0 t"
b0 d"
b1 +"
b1001 O
b1001 ["
b1001 \"
b1 N
b1 %"
b1 ^"
b1 `"
b10100 P
b10100 S"
b10100 T"
b10100 U"
b10001 >
b10001 J"
b10001 w"
b0 U
b0 R
b0 z"
b0 ~"
b0 S
b0 }"
b100010000000000000000 {"
b10100 B
b10100 ."
b10100 P"
b10000 7
b10000 /"
b10000 O"
b10000 r"
b100 -
b100 E"
b100 s"
b100 {
b0 *
b0 a"
b0 z
15
1~
0}
b1000 h
b1000 ,
b1000 @"
b1000 a
b100000000010010000000000000001 w
b1001 3
b1001 D"
b1001 H"
b1001 Y"
b1001 s
b1 +
b1 ]"
b1 l
b10000 [
b10000 ""
b10000 Q"
b10000 x
b10000 !"
b100000000100010000000000000000 y
b100 $
1!
#225
0!
#250
b0 \
b0 $"
b0 ("
b11000 C
b11000 W"
b11000 q"
b11000 X"
b100 9
b100 #"
b100 y"
b10010000000000000000100 6
b10010000000000000000100 V"
b10010000000000000000100 :
b10010000000000000000100 |"
b10001100100100000000000000000000 8
b10001100100100000000000000000000 N"
b0 +"
b10001 O
b10001 ["
b10001 \"
b0 N
b0 %"
b0 ^"
b0 `"
b11000 P
b11000 S"
b11000 T"
b11000 U"
b10010 >
b10010 J"
b10010 w"
b1 U
b1 R
b1 z"
b1 ~"
b1 S
b1 }"
b100100000000000000001 {"
b11000 B
b11000 ."
b11000 P"
b10100 7
b10100 /"
b10100 O"
b10100 r"
b1000 -
b1000 E"
b1000 s"
b1000 {
b1001 h
b1001 ,
b1001 @"
b1001 a
b1 )
b1 ;"
b1 g"
b1 m"
b1 `
b100000000100010000000000000000 w
b10001 3
b10001 D"
b10001 H"
b10001 Y"
b10001 s
b0 +
b0 ]"
b0 l
b11000 [
b11000 ""
b11000 Q"
b10100 x
b10100 !"
b100000000100100000000000000001 y
b101 $
1!
#275
0!
#300
b1 \
b1 $"
b1 ("
b11100 C
b11100 W"
b11100 q"
b11100 X"
b0 9
b0 #"
b0 y"
1J
16"
1X
14"
1G
17"
b10010000000000000000000000 6
b10010000000000000000000000 V"
b10010000000000000000000000 :
b10010000000000000000000000 |"
b100010000101000000000000000000 8
b100010000101000000000000000000 N"
b1 M
b1 c"
b1 f"
b1 l"
b1 t"
b1 d"
b1 +"
b10010 O
b10010 ["
b10010 \"
b1 N
b1 %"
b1 ^"
b1 `"
b11100 P
b11100 S"
b11100 T"
b11100 U"
b100 @
b100 I"
b100 u"
b10000 >
b10000 J"
b10000 w"
b100011 E
b0 U
b0 R
b0 z"
b0 ~"
b0 S
b0 }"
b100011 1"
b100100000000000000000000 {"
b11100 B
b11100 ."
b11100 P"
b11000 7
b11000 /"
b11000 O"
b11000 r"
b1001 -
b1001 E"
b1001 s"
b1001 {
b1 *
b1 a"
b1 z
b10001 h
b10001 ,
b10001 @"
b10001 a
b0 )
b0 ;"
b0 g"
b0 m"
b0 `
b100000000100100000000000000001 w
b10010 3
b10010 D"
b10010 H"
b10010 Y"
b10010 s
b1 +
b1 ]"
b1 l
b11000 [
b11000 ""
b11000 Q"
b11000 x
b11000 !"
b10001100100100000000000000000000 y
b110 $
1!
#325
0!
#350
b0 \
b0 $"
b0 ("
b100000 C
b100000 W"
b100000 q"
b100000 X"
0J
06"
0X
04"
0G
07"
b1000010100000000000000000000 6
b1000010100000000000000000000 V"
b1000010100000000000000000000 :
b1000010100000000000000000000 |"
b10000010011000000000100010 8
b10000010011000000000100010 N"
b0 M
b0 c"
b0 f"
b0 l"
b0 t"
b0 d"
b0 +"
b10000 O
b10000 ["
b10000 \"
b0 N
b0 %"
b0 ^"
b0 `"
1F
1L"
0T
0K"
0D
0M"
b100000 P
b100000 S"
b100000 T"
b100000 U"
b10000 @
b10000 I"
b10000 u"
b10100 >
b10100 J"
b10100 w"
b1000 E
b1000 1"
b10000101000000000000000000 {"
b100000 B
b100000 ."
b100000 P"
b11100 7
b11100 /"
b11100 O"
b11100 r"
b10001 -
b10001 E"
b10001 s"
b10001 {
b0 *
b0 a"
b0 z
b10010 h
b10010 ,
b10010 @"
b10010 a
b1 )
b1 ;"
b1 g"
b1 m"
b1 `
b10001100100100000000000000000000 w
b10000 3
b10000 D"
b10000 H"
b10000 Y"
b10000 s
b100 1
b100 C"
b100 q
b0 +
b0 ]"
b0 l
1m
1o
b11100 [
b11100 ""
b11100 Q"
b11100 x
b11100 !"
b100010000101000000000000000000 y
b111 $
1!
#375
0!
#400
b1 M
b1 c"
b1 f"
b1 l"
b1 t"
b1 d"
b101 H
b101 ="
b10100 O
b10100 ["
b10100 \"
b10 W
b10 A"
b10 i"
b10 F"
0F
0L"
1T
1K"
1D
1M"
b10010 -
b10010 E"
b10010 s"
b10010 {
b1 *
b1 a"
b1 z
b10000 h
b100 g
b10000 ,
b10000 @"
b10000 a
b0 )
b0 ;"
b0 g"
b0 m"
b0 `
1c
1e
b100010000101000000000000000000 w
b10100 3
b10100 D"
b10100 H"
b10100 Y"
b10100 s
b10000 1
b10000 C"
b10000 q
b0 j
b0 *"
0k
0m
0v
0o
b1000 $
b1 (
1!
#425
0!
#450
b101 ?
b101 ?"
b101 v"
b101 \
b101 $"
b101 ("
0Y
b101 L
b101 &"
b101 h"
b101 j"
b100100 C
b100100 W"
b100100 q"
b100100 X"
b100000000010001000 9
b100000000010001000 #"
b100000000010001000 y"
b0 ^
b0 0"
b0 2"
0]
03"
1<
19"
b1000001001100000000010001000 6
b1000001001100000000010001000 V"
b1000001001100000000010001000 :
b1000001001100000000010001000 |"
b10001100101000100000100000 8
b10001100101000100000100000 N"
b101 M
b101 c"
b101 f"
b101 l"
b101 t"
b101 d"
b1 W
b1 A"
b1 i"
b1 F"
b100100 P
b100100 S"
b100100 T"
b100100 U"
b1 =
b1 >"
b1 x"
b1001 >
b1001 J"
b1001 w"
b10000 A
b0 E
b100010 U
b1000000000100010 R
b1000000000100010 z"
b1000000000100010 ~"
b1000000000100010 S
b1000000000100010 }"
b0 1"
b10000010011000000000100010 {"
b100100 B
b100100 ."
b100100 P"
b100000 7
b100000 /"
b100000 O"
b100000 r"
b10000 -
b10000 E"
b10000 s"
b10000 {
b0 *
b0 a"
b0 z
b101 /
b101 b"
b101 |
1}
b10100 h
b10000 g
b10100 ,
b10100 @"
b10100 a
0c
0i
0e
b1 j
b1 *"
1k
1v
b100000000010101000 [
b100000000010101000 ""
b100000000010101000 Q"
b100000 x
b100000 !"
b10000010011000000000100010 y
b1001 $
1!
#475
0!
#500
b100 \
b100 $"
b100 ("
b1 _
b1 '"
b1 )"
b1 ,"
b1 N
b1 %"
b1 ^"
b1 `"
b101000 C
b101000 W"
b101000 q"
b101000 X"
b100010000010000000 9
b100010000010000000 #"
b100010000010000000 y"
b1000110010100010000010000000 6
b1000110010100010000010000000 V"
b1000110010100010000010000000 :
b1000110010100010000010000000 |"
b100010010100110000000000000000 8
b100010010100110000000000000000 N"
b0 M
b0 c"
b0 f"
b0 l"
b0 t"
b0 d"
b100010 +"
b0 W
b0 A"
b0 i"
b0 F"
b1 K
b1 _"
b1 n"
b1 p"
b10000 O
b10000 ["
b10000 \"
b101000 P
b101000 S"
b101000 T"
b101000 U"
b0 ?
b0 ?"
b0 v"
b10001 @
b10001 I"
b10001 u"
b10010 >
b10010 J"
b10010 w"
b10001 A
b100000 U
b1000100000100000 R
b1000100000100000 z"
b1000100000100000 ~"
b1000100000100000 S
b1000100000100000 }"
b10001100101000100000100000 {"
b101000 B
b101000 ."
b101000 P"
b100100 7
b100100 /"
b100100 O"
b100100 r"
b10100 -
b10100 E"
b10100 s"
b10100 {
05
0~
0}
b101 )
b101 ;"
b101 g"
b101 m"
b101 `
1i
b10000010011000000000100010 w
b10000 0
b10000 Z"
b10000 p
b1001 3
b1001 D"
b1001 H"
b1001 Y"
b1001 s
b1000000000100010 +
b1000000000100010 ]"
b1000000000100010 l
b1 4
b1 k"
b1 t
b101 2
b101 e"
b101 r
1u
b0 j
b0 *"
0k
b100010000010100100 [
b100010000010100100 ""
b100010000010100100 Q"
b100100 x
b100100 !"
b10001100101000100000100000 y
b1010 $
1!
#525
0!
#550
b0 _
b0 '"
b0 )"
b0 ,"
b1 \
b1 $"
b1 ("
b101100 C
b101100 W"
b101100 q"
b101100 X"
b0 9
b0 #"
b0 y"
b1 ^
b1 0"
b1 2"
1]
13"
0<
09"
b1001010011000000000000000000 6
b1001010011000000000000000000 V"
b1001010011000000000000000000 :
b1001010011000000000000000000 |"
b100010001100100000000000000000 8
b100010001100100000000000000000 N"
b101 M
b101 c"
b101 f"
b101 l"
b101 t"
b101 d"
b100000 +"
b10001 O
b10001 ["
b10001 \"
b0 L
b0 &"
b0 h"
b0 j"
b101100 P
b101100 S"
b101100 T"
b101100 U"
b1 ?
b1 ?"
b1 v"
b10010 @
b10010 I"
b10010 u"
b0 =
b0 >"
b0 x"
b10011 >
b10011 J"
b10011 w"
b0 A
b1000 E
b0 U
b0 R
b0 z"
b0 ~"
b0 S
b0 }"
b1000 1"
b10010100110000000000000000 {"
b101100 B
b101100 ."
b101100 P"
b101000 7
b101000 /"
b101000 O"
b101000 r"
b101 *
b101 a"
b101 z
15
1~
b10000 f
b1001 h
b10000 ,
b10000 @"
b10000 a
b1 .
b1 <"
b1 b
b100 )
b100 ;"
b100 g"
b100 m"
b100 `
b10001100101000100000100000 w
b10001 0
b10001 Z"
b10001 p
b10010 3
b10010 D"
b10010 H"
b10010 Y"
b10010 s
b10001 1
b10001 C"
b10001 q
b1000100000100000 +
b1000100000100000 ]"
b1000100000100000 l
b0 2
b0 e"
b0 r
b101000 [
b101000 ""
b101000 Q"
b101000 x
b101000 !"
b100010010100110000000000000000 y
b1011 $
1!
#575
0!
#600
b110000 C
b110000 W"
b110000 q"
b110000 X"
b1000110010000000000000000000 6
b1000110010000000000000000000 V"
b1000110010000000000000000000 :
b1000110010000000000000000000 |"
b100010011100010000000000000000 8
b100010011100010000000000000000 N"
b100 M
b100 c"
b100 f"
b100 l"
b100 t"
b100 d"
b0 +"
b0 K
b0 _"
b0 n"
b0 p"
b1 L
b1 &"
b1 h"
b1 j"
b10011 O
b10011 ["
b10011 \"
b0 N
b0 %"
b0 ^"
b0 `"
b110000 P
b110000 S"
b110000 T"
b110000 U"
b0 ?
b0 ?"
b0 v"
b10001 @
b10001 I"
b10001 u"
b1 =
b1 >"
b1 x"
b10010 >
b10010 J"
b10010 w"
b10001100100000000000000000 {"
b110000 B
b110000 ."
b110000 P"
b101100 7
b101100 /"
b101100 O"
b101100 r"
b10000 -
b10000 E"
b10000 s"
b10000 {
b100 *
b100 a"
b100 z
b10001 f
b10010 h
b10001 g
b10001 ,
b10001 @"
b10001 a
b1 )
b1 ;"
b1 g"
b1 m"
b1 `
b100010010100110000000000000000 w
b0 0
b0 Z"
b0 p
b10011 3
b10011 D"
b10011 H"
b10011 Y"
b10011 s
b10010 1
b10010 C"
b10010 q
b0 +
b0 ]"
b0 l
b0 4
b0 k"
b0 t
b1 2
b1 e"
b1 r
0u
b1 j
b1 *"
1k
b101100 [
b101100 ""
b101100 Q"
b101100 x
b101100 !"
b100010001100100000000000000000 y
b1100 $
1!
#625
0!
#650
0Y
b1 \
b1 $"
b1 ("
b110100 C
b110100 W"
b110100 q"
b110100 X"
b1001110001000000000000000000 6
b1001110001000000000000000000 V"
b1001110001000000000000000000 :
b1001110001000000000000000000 |"
b10010000010000000000000000001 8
b10010000010000000000000000001 N"
b1 M
b1 c"
b1 f"
b1 l"
b1 t"
b1 d"
b10010 O
b10010 ["
b10010 \"
b1 W
b1 A"
b1 i"
b1 F"
b1 K
b1 _"
b1 n"
b1 p"
b1 L
b1 &"
b1 h"
b1 j"
b110100 P
b110100 S"
b110100 T"
b110100 U"
b10011 @
b10011 I"
b10011 u"
b1 =
b1 >"
b1 x"
b10001 >
b10001 J"
b10001 w"
b10011100010000000000000000 {"
b110100 B
b110100 ."
b110100 P"
b110000 7
b110000 /"
b110000 O"
b110000 r"
b10001 -
b10001 E"
b10001 s"
b10001 {
b1 *
b1 a"
b1 z
b0 f
b10011 h
b10010 g
b10011 ,
b10011 @"
b10011 a
b0 .
b0 <"
b0 b
b100010001100100000000000000000 w
b10010 3
b10010 D"
b10010 H"
b10010 Y"
b10010 s
b10001 1
b10001 C"
b10001 q
b1 4
b1 k"
b1 t
b0 2
b0 e"
b0 r
b110000 [
b110000 ""
b110000 Q"
b110000 x
b110000 !"
b100010011100010000000000000000 y
b1101 $
1!
#675
0!
#700
b111000 C
b111000 W"
b111000 q"
b111000 X"
b100 9
b100 #"
b100 y"
b10 ^
b10 0"
b10 2"
1Z
0;
0:"
0]
03"
b1000001000000000000000000100 6
b1000001000000000000000000100 V"
b1000001000000000000000000100 :
b1000001000000000000000000100 |"
b1000000000000000000000000111 8
b1000000000000000000000000111 N"
b10001 O
b10001 ["
b10001 \"
b111000 P
b111000 S"
b111000 T"
b111000 U"
b100 ?
b100 ?"
b100 v"
b10000 @
b10000 I"
b10000 u"
b0 =
b0 >"
b0 x"
b1000 >
b1000 J"
b1000 w"
b100 E
b1 U
b1 R
b1 z"
b1 ~"
b1 S
b1 }"
b100 1"
b10000010000000000000000001 {"
b111000 B
b111000 ."
b111000 P"
b110100 7
b110100 /"
b110100 O"
b110100 r"
b10011 -
b10011 E"
b10011 s"
b10011 {
b10010 h
b10001 g
b10010 ,
b10010 @"
b10010 a
b1 .
b1 <"
b1 b
b100010011100010000000000000000 w
b10001 3
b10001 D"
b10001 H"
b10001 Y"
b10001 s
b10011 1
b10011 C"
b10011 q
b111000 [
b111000 ""
b111000 Q"
b110100 x
b110100 !"
b10010000010000000000000000001 y
b1110 $
1!
#725
0!
