all.vcd
$date
	Mon Dec 12 01:36:42 2016
$end
$version
	Icarus Verilog
$end
$timescale
	1s
$end
$scope module TestBench $end
$var reg 1 ! Clk $end
$var reg 1 " Reset $end
$var reg 1 # Start $end
$var integer 32 $ counter [31:0] $end
$var integer 32 % flush [31:0] $end
$var integer 32 & i [31:0] $end
$var integer 32 ' outfile [31:0] $end
$var integer 32 ( stall [31:0] $end
$scope module CPU $end
$var wire 32 ) ALU_out_MEM [31:0] $end
$var wire 32 * ALU_out_WB [31:0] $end
$var wire 32 + Immediate32_EX [31:0] $end
$var wire 5 , MUX3_out_MEM [4:0] $end
$var wire 5 - MUX3_out_WB [4:0] $end
$var wire 32 . Memdata_in [31:0] $end
$var wire 32 / Memdata_out_WB [31:0] $end
$var wire 5 0 RDaddr_EX [4:0] $end
$var wire 5 1 RSaddr_EX [4:0] $end
$var wire 32 2 RSdata_EX [31:0] $end
$var wire 5 3 RTaddr_EX [4:0] $end
$var wire 32 4 RTdata_EX [31:0] $end
$var wire 1 ! clk_i $end
$var wire 1 " rst_i $end
$var wire 1 # start_i $end
$var wire 32 5 jump_addr [31:0] $end
$var wire 32 6 inst_addr [31:0] $end
$var wire 32 7 inst [31:0] $end
$var wire 32 8 ShiftLeft32 [31:0] $end
$var wire 28 9 ShiftLeft28 [27:0] $end
$var wire 1 : RegWrite $end
$var wire 1 ; RegDst $end
$var wire 32 < RTdata [31:0] $end
$var wire 5 = RTaddr [4:0] $end
$var wire 32 > RSdata [31:0] $end
$var wire 5 ? RSaddr [4:0] $end
$var wire 5 @ RDaddr [4:0] $end
$var wire 32 A PC_out [31:0] $end
$var wire 32 B PC_in [31:0] $end
$var wire 1 C PCWrite $end
$var wire 6 D Op [5:0] $end
$var wire 1 E NOP $end
$var wire 1 F MemtoReg $end
$var wire 32 G Memdata_out [31:0] $end
$var wire 1 H MemWrite $end
$var wire 1 I MemRead $end
$var wire 32 J MUX7_out [31:0] $end
$var wire 32 K MUX6_out [31:0] $end
$var wire 32 L MUX5_out [31:0] $end
$var wire 32 M MUX4_out [31:0] $end
$var wire 5 N MUX3_out [4:0] $end
$var wire 32 O MUX1_out [31:0] $end
$var wire 1 P Jump $end
$var wire 32 Q Immediate32 [31:0] $end
$var wire 16 R Immediate [15:0] $end
$var wire 1 S IF_ID_Write $end
$var wire 6 T Funct [5:0] $end
$var wire 2 U ForwardB [1:0] $end
$var wire 2 V ForwardA [1:0] $end
$var wire 1 W ExtOp $end
$var wire 1 X Eq $end
$var wire 1 Y Branch $end
$var wire 32 Z Add_PC_out [31:0] $end
$var wire 32 [ ALU_out [31:0] $end
$var wire 1 \ ALUSrc $end
$var wire 2 ] ALUOp [1:0] $end
$var wire 3 ^ ALUCtrl [2:0] $end
$var reg 32 _ EX_MEM_ALU_out [31:0] $end
$var reg 5 ` EX_MEM_MUX3_out [4:0] $end
$var reg 32 a EX_MEM_MUX7_out [31:0] $end
$var reg 1 b EX_MEM_MemRead $end
$var reg 1 c EX_MEM_MemWrite $end
$var reg 1 d EX_MEM_MemtoReg $end
$var reg 5 e EX_MEM_RDaddr [4:0] $end
$var reg 5 f EX_MEM_RSaddr [4:0] $end
$var reg 5 g EX_MEM_RTaddr [4:0] $end
$var reg 1 h EX_MEM_RegWrite $end
$var reg 2 i ID_EX_ALUOp [1:0] $end
$var reg 1 j ID_EX_ALUSrc $end
$var reg 32 k ID_EX_Immediate32 [31:0] $end
$var reg 1 l ID_EX_MemRead $end
$var reg 1 m ID_EX_MemWrite $end
$var reg 1 n ID_EX_MemtoReg $end
$var reg 5 o ID_EX_RDaddr [4:0] $end
$var reg 5 p ID_EX_RSaddr [4:0] $end
$var reg 32 q ID_EX_RSdata [31:0] $end
$var reg 5 r ID_EX_RTaddr [4:0] $end
$var reg 32 s ID_EX_RTdata [31:0] $end
$var reg 1 t ID_EX_RegDst $end
$var reg 1 u ID_EX_RegWrite $end
$var reg 32 v ID_EX_inst [31:0] $end
$var reg 32 w IF_ID_PC_out [31:0] $end
$var reg 32 x IF_ID_inst [31:0] $end
$var reg 32 y MEM_WB_ALU_out [31:0] $end
$var reg 5 z MEM_WB_MUX3_out [4:0] $end
$var reg 32 { MEM_WB_Memdata_out [31:0] $end
$var reg 1 | MEM_WB_MemtoReg $end
$var reg 1 } MEM_WB_RegWrite $end
$scope module ADD $end
$var wire 32 ~ data2_i [31:0] $end
$var wire 32 !" data_o [31:0] $end
$var wire 32 "" data1_i [31:0] $end
$upscope $end
$scope module ALU $end
$var wire 32 #" dataout [31:0] $end
$var wire 32 $" data2 [31:0] $end
$var wire 32 %" data1 [31:0] $end
$var wire 3 &" ALUCtr [2:0] $end
$var reg 32 '" do [31:0] $end
$upscope $end
$scope module ALUCtr_unit $end
$var wire 3 (" ALUCtr [2:0] $end
$var wire 2 )" ALUOp [1:0] $end
$var wire 6 *" func [5:0] $end
$var reg 3 +" ac [2:0] $end
$upscope $end
$scope module Add_PC $end
$var wire 32 ," data2_i [31:0] $end
$var wire 32 -" data_o [31:0] $end
$var wire 32 ." data1_i [31:0] $end
$upscope $end
$scope module Control $end
$var wire 2 /" ALUOp [1:0] $end
$var wire 1 \ ALUSrc $end
$var wire 1 W ExtOp $end
$var wire 1 P Jump $end
$var wire 1 I MemRead $end
$var wire 1 H MemWrite $end
$var wire 1 F MemtoReg $end
$var wire 1 ; RegDst $end
$var wire 1 : RegWrite $end
$var wire 6 0" op [5:0] $end
$var wire 1 Y Branch $end
$var reg 2 1" ao [1:0] $end
$var reg 1 2" as $end
$var reg 1 Y br $end
$var reg 1 3" ex $end
$var reg 1 4" jp $end
$var reg 1 5" mr $end
$var reg 1 6" mtr $end
$var reg 1 7" mw $end
$var reg 1 8" rd $end
$var reg 1 9" rw $end
$upscope $end
$scope module Data_Memory $end
$var wire 32 :" Address_i [31:0] $end
$var wire 1 b MemRead_i $end
$var wire 1 c MemWrite_i $end
$var wire 32 ;" Writedata_i [31:0] $end
$var wire 1 ! clk_i $end
$var reg 32 <" Readdata_o [31:0] $end
$upscope $end
$scope module Equal $end
$var wire 32 =" data2_i [31:0] $end
$var wire 32 >" data1_i [31:0] $end
$var wire 1 X Eq_o $end
$upscope $end
$scope module FU $end
$var wire 5 ?" EX_MEM_RegRd [4:0] $end
$var wire 1 h EX_MEM_RegWrite $end
$var wire 2 @" Forward_A [1:0] $end
$var wire 2 A" Forward_B [1:0] $end
$var wire 5 B" ID_EX_RegRs [4:0] $end
$var wire 5 C" ID_EX_RegRt [4:0] $end
$var wire 5 D" MEM_WB_RegRd [4:0] $end
$var wire 1 } MEM_WB_RegWrite $end
$var reg 2 E" A [1:0] $end
$var reg 2 F" B [1:0] $end
$upscope $end
$scope module HD $end
$var wire 1 l ID_EX_MEM_Read $end
$var wire 5 G" ID_EX_RegRt [4:0] $end
$var wire 5 H" IF_ID_RegRs [4:0] $end
$var wire 5 I" IF_ID_RegRt [4:0] $end
$var wire 1 S IF_ID_Write $end
$var wire 1 E NOP $end
$var wire 1 C PC_Write $end
$var reg 1 J" ifid $end
$var reg 1 K" nop $end
$var reg 1 L" pc $end
$upscope $end
$scope module Instruction_Memory $end
$var wire 32 M" instr_o [31:0] $end
$var wire 32 N" addr_i [31:0] $end
$upscope $end
$scope module MUX1 $end
$var wire 32 O" data1_i [31:0] $end
$var wire 32 P" data2_i [31:0] $end
$var wire 1 Q" select_i $end
$var wire 32 R" data_o [31:0] $end
$var reg 32 S" data_out [31:0] $end
$upscope $end
$scope module MUX2 $end
$var wire 32 T" data1_i [31:0] $end
$var wire 32 U" data2_i [31:0] $end
$var wire 32 V" data_o [31:0] $end
$var wire 1 P select_i $end
$var reg 32 W" data_out [31:0] $end
$upscope $end
$scope module MUX3 $end
$var wire 5 X" data1_i [4:0] $end
$var wire 5 Y" data2_i [4:0] $end
$var wire 5 Z" data_o [4:0] $end
$var wire 1 t select_i $end
$var reg 5 [" data_out [4:0] $end
$upscope $end
$scope module MUX4 $end
$var wire 32 \" data2_i [31:0] $end
$var wire 32 ]" data_o [31:0] $end
$var wire 1 j select_i $end
$var wire 32 ^" data1_i [31:0] $end
$var reg 32 _" data_out [31:0] $end
$upscope $end
$scope module MUX5 $end
$var wire 32 `" data1_i [31:0] $end
$var wire 32 a" data2_i [31:0] $end
$var wire 32 b" data_o [31:0] $end
$var wire 1 | select_i $end
$var reg 32 c" data_out [31:0] $end
$upscope $end
$scope module MUX6 $end
$var wire 32 d" data1_i [31:0] $end
$var wire 32 e" data2_i [31:0] $end
$var wire 32 f" data3_i [31:0] $end
$var wire 32 g" data_o [31:0] $end
$var wire 2 h" select_i [1:0] $end
$var reg 32 i" data_out [31:0] $end
$upscope $end
$scope module MUX7 $end
$var wire 32 j" data1_i [31:0] $end
$var wire 32 k" data2_i [31:0] $end
$var wire 32 l" data3_i [31:0] $end
$var wire 32 m" data_o [31:0] $end
$var wire 2 n" select_i [1:0] $end
$var reg 32 o" data_out [31:0] $end
$upscope $end
$scope module PC $end
$var wire 1 C PCWrite_i $end
$var wire 1 ! clk_i $end
$var wire 32 p" pc_i [31:0] $end
$var wire 1 " rst_i $end
$var wire 1 # start_i $end
$var reg 32 q" pc_o [31:0] $end
$upscope $end
$scope module Registers $end
$var wire 5 r" RDaddr_i [4:0] $end
$var wire 32 s" RDdata_i [31:0] $end
$var wire 5 t" RSaddr_i [4:0] $end
$var wire 32 u" RSdata_o [31:0] $end
$var wire 5 v" RTaddr_i [4:0] $end
$var wire 32 w" RTdata_o [31:0] $end
$var wire 1 } RegWrite_i $end
$var wire 1 ! clk_i $end
$upscope $end
$scope module Shift_Left_2 $end
$var wire 32 x" data_o [31:0] $end
$var wire 32 y" data_i [31:0] $end
$upscope $end
$scope module Shift_Left_2_26to28 $end
$var wire 26 z" data_i [25:0] $end
$var wire 28 {" data_o [27:0] $end
$upscope $end
$scope module Sign_Extend $end
$var wire 16 |" data_i [15:0] $end
$var wire 32 }" data_o [31:0] $end
$upscope $end
$upscope $end
$upscope $end
$enddefinitions $end
#12
$dumpvars
b0xxxxxxxxxxxxxxxx }"
bx |"
bx00 {"
bx z"
b0xxxxxxxxxxxxxxxx y"
b0xxxxxxxxxxxxxxxx00 x"
bx w"
bx v"
bx u"
bx t"
bx s"
bx r"
b0 q"
b100 p"
bx o"
bx n"
bx m"
bx l"
bx k"
bx j"
bx i"
bx h"
bx g"
bx f"
bx e"
bx d"
bx c"
bx b"
bx a"
bx `"
bx _"
bx ^"
bx ]"
b0xxxxxxxxxxxxxxxx \"
bx ["
bx Z"
bx Y"
bx X"
b100 W"
b100 V"
b0xxxxxxxxxxxxxxxxxxxxxxxxxx00 U"
b100 T"
b100 S"
b100 R"
xQ"
bx P"
b100 O"
b0 N"
b100000000001000000000000000000 M"
1L"
0K"
1J"
bx I"
bx H"
bx G"
bx F"
bx E"
bx D"
bx C"
bx B"
bx A"
bx @"
bx ?"
bx >"
bx ="
bx <"
bx ;"
bx :"
x9"
x8"
x7"
x6"
x5"
x4"
x3"
x2"
bx 1"
bx 0"
bx /"
b0 ."
b100 -"
b100 ,"
bx +"
bx *"
b0 )"
bx ("
bx '"
bx &"
bx %"
bx $"
bx #"
b0xxxxxxxxxxxxxxxx00 ""
bx !"
bx ~
x}
x|
bx {
bx z
bx y
bx x
bx w
bx v
0u
0t
bx s
bx r
bx q
bx p
bx o
0n
0m
0l
b0xxxxxxxxxxxxxxxx k
0j
b0 i
xh
bx g
bx f
bx e
xd
xc
xb
bx a
bx `
bx _
bx ^
bx ]
x\
bx [
bx Z
xY
xX
xW
bx V
bx U
bx T
1S
bx R
b0xxxxxxxxxxxxxxxx Q
xP
b100 O
bx N
bx M
bx L
bx K
bx J
xI
xH
bx G
xF
0E
bx D
1C
b100 B
b100 A
bx @
bx ?
bx >
bx =
bx <
x;
x:
bx00 9
b0xxxxxxxxxxxxxxxx00 8
b100000000001000000000000000000 7
b0 6
b0xxxxxxxxxxxxxxxxxxxxxxxxxx00 5
bx 4
bx 3
bx 2
bx 1
bx 0
bx /
bx .
bx -
bx ,
b0xxxxxxxxxxxxxxxx +
bx *
bx )
b0 (
b11 '
b100000 &
b0 %
b0 $
1#
1"
1!
$end
#25
0!
#50
1X
0Q"
b1000 B
b1000 V"
b1000 p"
b1000 W"
b100 Z
b100 !"
b100 P"
b0 8
b0 ""
b0 x"
b1 ]
b1 /"
b1 1"
0I
05"
0W
03"
0P
04"
0Y
0H
07"
1:
19"
0F
06"
1\
12"
0;
08"
b100000000000000000000 5
b100000000000000000000 U"
b100000000000000000000 9
b100000000000000000000 {"
b100000000010000000000000000000 7
b100000000010000000000000000000 M"
b1000 O
b1000 R"
b1000 S"
b1000 T"
b0 U
b0 A"
b0 n"
b0 F"
b0 V
b0 @"
b0 h"
b0 E"
b0 >
b0 >"
b0 u"
b0 ?
b0 H"
b0 t"
b0 <
b0 ="
b0 w"
b100 =
b100 I"
b100 v"
b0 @
b1000 D
b0 T
b0 Q
b0 y"
b0 }"
b0 R
b0 |"
b1000 0"
b1000000000000000000 z"
b1000 A
b1000 -"
b1000 O"
b100 6
b100 ."
b100 N"
b100 q"
0c
0b
0h
0d
xt
bx i
bx )"
xj
xm
xl
xu
xn
b100 w
b100 ~
b100000000001000000000000000000 x
b1 $
1!
#75
0!
#100
b0 [
b0 #"
b0 '"
b1100 B
b1100 V"
b1100 p"
b1100 W"
b1000000000000000000000 5
b1000000000000000000000 U"
b1000000000000000000000 9
b1000000000000000000000 {"
b100000000010010000000000000001 7
b100000000010010000000000000001 M"
b0 *"
b0 J
b0 ^"
b0 m"
b0 o"
b0 K
b0 %"
b0 g"
b0 i"
b100 N
b100 Z"
b100 ["
b0 ^
b0 &"
b0 ("
b0 +"
b0 M
b0 $"
b0 ]"
b0 _"
b1100 O
b1100 R"
b1100 S"
b1100 T"
b1000 =
b1000 I"
b1000 v"
b10000000000000000000 z"
b1100 A
b1100 -"
b1100 O"
b1000 6
b1000 ."
b1000 N"
b1000 q"
0}
0|
xc
xb
xh
xd
b100000000001000000000000000000 v
b0 0
b0 Y"
b0 o
b100 3
b100 C"
b100 G"
b100 X"
b100 r
b0 1
b0 B"
b0 p
b0 +
b0 \"
b0 k
b0 4
b0 j"
b0 s
b0 2
b0 d"
b0 q
0t
b1 i
b1 )"
1j
0m
0l
1u
0n
b1000 Z
b1000 !"
b1000 P"
b1000 w
b1000 ~
b100000000010000000000000000000 x
b10 $
1!
#125
0!
#150
b10000 B
b10000 V"
b10000 p"
b10000 W"
b100 8
b100 ""
b100 x"
b1001000000000000000100 5
b1001000000000000000100 U"
b1001000000000000000100 9
b1001000000000000000100 {"
b100000000100010000000000000000 7
b100000000100010000000000000000 M"
b1000 N
b1000 Z"
b1000 ["
b10000 O
b10000 R"
b10000 S"
b10000 T"
b1001 =
b1001 I"
b1001 v"
b1 T
b1 Q
b1 y"
b1 }"
b1 R
b1 |"
b10010000000000000001 z"
b10000 A
b10000 -"
b10000 O"
b1100 6
b1100 ."
b1100 N"
b1100 q"
x}
x|
b0 e
b100 g
b0 f
b100 ,
b100 ?"
b100 `
b0 .
b0 ;"
b0 a
b0 )
b0 :"
b0 f"
b0 l"
b0 _
0c
0b
1h
0d
b100000000010000000000000000000 v
b1000 3
b1000 C"
b1000 G"
b1000 X"
b1000 r
b10000 Z
b10000 !"
b10000 P"
b1100 w
b1100 ~
b100000000010010000000000000001 x
b11 $
1!
#175
0!
#200
b1 [
b1 #"
b1 '"
b10100 B
b10100 V"
b10100 p"
b10100 W"
b0 8
b0 ""
b0 x"
b10001000000000000000000 5
b10001000000000000000000 U"
b10001000000000000000000 9
b10001000000000000000000 {"
b100000000100100000000000000001 7
b100000000100100000000000000001 M"
b0 L
b0 b"
b0 e"
b0 k"
b0 s"
b0 c"
b1 *"
b1001 N
b1001 Z"
b1001 ["
b1 M
b1 $"
b1 ]"
b1 _"
b10100 O
b10100 R"
b10100 S"
b10100 T"
b10001 =
b10001 I"
b10001 v"
b0 T
b0 Q
b0 y"
b0 }"
b0 R
b0 |"
b100010000000000000000 z"
b10100 A
b10100 -"
b10100 O"
b10000 6
b10000 ."
b10000 N"
b10000 q"
b100 -
b100 D"
b100 r"
b100 z
b0 *
b0 `"
b0 y
1}
0|
b1000 g
b1000 ,
b1000 ?"
b1000 `
b100000000010010000000000000001 v
b1001 3
b1001 C"
b1001 G"
b1001 X"
b1001 r
b1 +
b1 \"
b1 k
b10000 Z
b10000 !"
b10000 P"
b10000 w
b10000 ~
b100000000100010000000000000000 x
b100 $
1!
#225
0!
#250
b0 [
b0 #"
b0 '"
b11000 B
b11000 V"
b11000 p"
b11000 W"
b100 8
b100 ""
b100 x"
b10010000000000000000100 5
b10010000000000000000100 U"
b10010000000000000000100 9
b10010000000000000000100 {"
b10001100100100000000000000000000 7
b10001100100100000000000000000000 M"
b0 *"
b10001 N
b10001 Z"
b10001 ["
b0 M
b0 $"
b0 ]"
b0 _"
b11000 O
b11000 R"
b11000 S"
b11000 T"
b10010 =
b10010 I"
b10010 v"
b1 T
b1 Q
b1 y"
b1 }"
b1 R
b1 |"
b100100000000000000001 z"
b11000 A
b11000 -"
b11000 O"
b10100 6
b10100 ."
b10100 N"
b10100 q"
b1000 -
b1000 D"
b1000 r"
b1000 z
b1001 g
b1001 ,
b1001 ?"
b1001 `
b1 )
b1 :"
b1 f"
b1 l"
b1 _
b100000000100010000000000000000 v
b10001 3
b10001 C"
b10001 G"
b10001 X"
b10001 r
b0 +
b0 \"
b0 k
b11000 Z
b11000 !"
b11000 P"
b10100 w
b10100 ~
b100000000100100000000000000001 x
b101 $
1!
#275
0!
#300
b1 [
b1 #"
b1 '"
b11100 B
b11100 V"
b11100 p"
b11100 W"
b0 8
b0 ""
b0 x"
1I
15"
1W
13"
1F
16"
b10010000000000000000000000 5
b10010000000000000000000000 U"
b10010000000000000000000000 9
b10010000000000000000000000 {"
b100010000101000000000000000000 7
b100010000101000000000000000000 M"
b1 L
b1 b"
b1 e"
b1 k"
b1 s"
b1 c"
b1 *"
b10010 N
b10010 Z"
b10010 ["
b1 M
b1 $"
b1 ]"
b1 _"
b11100 O
b11100 R"
b11100 S"
b11100 T"
b100 ?
b100 H"
b100 t"
b10000 =
b10000 I"
b10000 v"
b100011 D
b0 T
b0 Q
b0 y"
b0 }"
b0 R
b0 |"
b100011 0"
b100100000000000000000000 z"
b11100 A
b11100 -"
b11100 O"
b11000 6
b11000 ."
b11000 N"
b11000 q"
b1001 -
b1001 D"
b1001 r"
b1001 z
b1 *
b1 `"
b1 y
b10001 g
b10001 ,
b10001 ?"
b10001 `
b0 )
b0 :"
b0 f"
b0 l"
b0 _
b100000000100100000000000000001 v
b10010 3
b10010 C"
b10010 G"
b10010 X"
b10010 r
b1 +
b1 \"
b1 k
b11000 Z
b11000 !"
b11000 P"
b11000 w
b11000 ~
b10001100100100000000000000000000 x
b110 $
1!
#325
0!
#350
b0 [
b0 #"
b0 '"
b100000 B
b100000 V"
b100000 p"
b100000 W"
0I
05"
0W
03"
0F
06"
b1000010100000000000000000000 5
b1000010100000000000000000000 U"
b1000010100000000000000000000 9
b1000010100000000000000000000 {"
b10000010011000000000100010 7
b10000010011000000000100010 M"
b0 L
b0 b"
b0 e"
b0 k"
b0 s"
b0 c"
b0 *"
b10000 N
b10000 Z"
b10000 ["
b0 M
b0 $"
b0 ]"
b0 _"
1E
1K"
0S
0J"
0C
0L"
b100000 O
b100000 R"
b100000 S"
b100000 T"
b10000 ?
b10000 H"
b10000 t"
b10100 =
b10100 I"
b10100 v"
b1000 D
b1000 0"
b10000101000000000000000000 z"
b100000 A
b100000 -"
b100000 O"
b11100 6
b11100 ."
b11100 N"
b11100 q"
b10001 -
b10001 D"
b10001 r"
b10001 z
b0 *
b0 `"
b0 y
b10010 g
b10010 ,
b10010 ?"
b10010 `
b1 )
b1 :"
b1 f"
b1 l"
b1 _
b10001100100100000000000000000000 v
b10000 3
b10000 C"
b10000 G"
b10000 X"
b10000 r
b100 1
b100 B"
b100 p
b0 +
b0 \"
b0 k
1l
1n
b11100 Z
b11100 !"
b11100 P"
b11100 w
b11100 ~
b100010000101000000000000000000 x
b111 $
1!
#375
0!
#400
b1 L
b1 b"
b1 e"
b1 k"
b1 s"
b1 c"
b101 G
b101 <"
b10100 N
b10100 Z"
b10100 ["
b10 V
b10 @"
b10 h"
b10 E"
0E
0K"
1S
1J"
1C
1L"
b10010 -
b10010 D"
b10010 r"
b10010 z
b1 *
b1 `"
b1 y
b10000 g
b100 f
b10000 ,
b10000 ?"
b10000 `
b0 )
b0 :"
b0 f"
b0 l"
b0 _
1b
1d
b100010000101000000000000000000 v
b10100 3
b10100 C"
b10100 G"
b10100 X"
b10100 r
b10000 1
b10000 B"
b10000 p
b0 i
b0 )"
0j
0l
0u
0n
b1000 $
1!
#425
0!
#450
b101 >
b101 >"
b101 u"
b101 [
b101 #"
b101 '"
0X
b101 K
b101 %"
b101 g"
b101 i"
b100100 B
b100100 V"
b100100 p"
b100100 W"
b100000000010001000 8
b100000000010001000 ""
b100000000010001000 x"
b0 ]
b0 /"
b0 1"
0\
02"
1;
18"
b1000001001100000000010001000 5
b1000001001100000000010001000 U"
b1000001001100000000010001000 9
b1000001001100000000010001000 {"
b10001100101000100000100000 7
b10001100101000100000100000 M"
b101 L
b101 b"
b101 e"
b101 k"
b101 s"
b101 c"
b1 V
b1 @"
b1 h"
b1 E"
b100100 O
b100100 R"
b100100 S"
b100100 T"
b1 <
b1 ="
b1 w"
b1001 =
b1001 I"
b1001 v"
b10000 @
b0 D
b100010 T
b1000000000100010 Q
b1000000000100010 y"
b1000000000100010 }"
b1000000000100010 R
b1000000000100010 |"
b0 0"
b10000010011000000000100010 z"
b100100 A
b100100 -"
b100100 O"
b100000 6
b100000 ."
b100000 N"
b100000 q"
b10000 -
b10000 D"
b10000 r"
b10000 z
b0 *
b0 `"
b0 y
b101 /
b101 a"
b101 {
1|
b10100 g
b10000 f
b10100 ,
b10100 ?"
b10100 `
0b
0h
0d
b1 i
b1 )"
1j
1u
b100000000010101000 Z
b100000000010101000 !"
b100000000010101000 P"
b100000 w
b100000 ~
b10000010011000000000100010 x
b1001 $
1!
#475
0!
#500
b100 [
b100 #"
b100 '"
b1 ^
b1 &"
b1 ("
b1 +"
b1 M
b1 $"
b1 ]"
b1 _"
b101000 B
b101000 V"
b101000 p"
b101000 W"
b100010000010000000 8
b100010000010000000 ""
b100010000010000000 x"
b1000110010100010000010000000 5
b1000110010100010000010000000 U"
b1000110010100010000010000000 9
b1000110010100010000010000000 {"
b100010010100110000000000000000 7
b100010010100110000000000000000 M"
b0 L
b0 b"
b0 e"
b0 k"
b0 s"
b0 c"
b100010 *"
b0 V
b0 @"
b0 h"
b0 E"
b1 J
b1 ^"
b1 m"
b1 o"
b10000 N
b10000 Z"
b10000 ["
b101000 O
b101000 R"
b101000 S"
b101000 T"
b0 >
b0 >"
b0 u"
b10001 ?
b10001 H"
b10001 t"
b10010 =
b10010 I"
b10010 v"
b10001 @
b100000 T
b1000100000100000 Q
b1000100000100000 y"
b1000100000100000 }"
b1000100000100000 R
b1000100000100000 |"
b10001100101000100000100000 z"
b101000 A
b101000 -"
b101000 O"
b100100 6
b100100 ."
b100100 N"
b100100 q"
b10100 -
b10100 D"
b10100 r"
b10100 z
0}
0|
b101 )
b101 :"
b101 f"
b101 l"
b101 _
1h
b10000010011000000000100010 v
b10000 0
b10000 Y"
b10000 o
b1001 3
b1001 C"
b1001 G"
b1001 X"
b1001 r
b1000000000100010 +
b1000000000100010 \"
b1000000000100010 k
b1 4
b1 j"
b1 s
b101 2
b101 d"
b101 q
1t
b0 i
b0 )"
0j
b100010000010100100 Z
b100010000010100100 !"
b100010000010100100 P"
b100100 w
b100100 ~
b10001100101000100000100000 x
b1010 $
1!
#525
0!
#550
b0 ^
b0 &"
b0 ("
b0 +"
b1 [
b1 #"
b1 '"
b101100 B
b101100 V"
b101100 p"
b101100 W"
b0 8
b0 ""
b0 x"
b1 ]
b1 /"
b1 1"
1\
12"
0;
08"
b1001010011000000000000000000 5
b1001010011000000000000000000 U"
b1001010011000000000000000000 9
b1001010011000000000000000000 {"
b100010001100100000000000000000 7
b100010001100100000000000000000 M"
b101 L
b101 b"
b101 e"
b101 k"
b101 s"
b101 c"
b100000 *"
b10001 N
b10001 Z"
b10001 ["
b0 K
b0 %"
b0 g"
b0 i"
b101100 O
b101100 R"
b101100 S"
b101100 T"
b1 >
b1 >"
b1 u"
b10010 ?
b10010 H"
b10010 t"
b0 <
b0 ="
b0 w"
b10011 =
b10011 I"
b10011 v"
b0 @
b1000 D
b0 T
b0 Q
b0 y"
b0 }"
b0 R
b0 |"
b1000 0"
b10010100110000000000000000 z"
b101100 A
b101100 -"
b101100 O"
b101000 6
b101000 ."
b101000 N"
b101000 q"
b101 *
b101 `"
b101 y
1}
b10000 e
b1001 g
b10000 ,
b10000 ?"
b10000 `
b1 .
b1 ;"
b1 a
b100 )
b100 :"
b100 f"
b100 l"
b100 _
b10001100101000100000100000 v
b10001 0
b10001 Y"
b10001 o
b10010 3
b10010 C"
b10010 G"
b10010 X"
b10010 r
b10001 1
b10001 B"
b10001 p
b1000100000100000 +
b1000100000100000 \"
b1000100000100000 k
b0 2
b0 d"
b0 q
b101000 Z
b101000 !"
b101000 P"
b101000 w
b101000 ~
b100010010100110000000000000000 x
b1011 $
1!
#575
0!
#600
b110000 B
b110000 V"
b110000 p"
b110000 W"
b1000110010000000000000000000 5
b1000110010000000000000000000 U"
b1000110010000000000000000000 9
b1000110010000000000000000000 {"
b100010011100010000000000000000 7
b100010011100010000000000000000 M"
b100 L
b100 b"
b100 e"
b100 k"
b100 s"
b100 c"
b0 *"
b0 J
b0 ^"
b0 m"
b0 o"
b1 K
b1 %"
b1 g"
b1 i"
b10011 N
b10011 Z"
b10011 ["
b0 M
b0 $"
b0 ]"
b0 _"
b110000 O
b110000 R"
b110000 S"
b110000 T"
b0 >
b0 >"
b0 u"
b10001 ?
b10001 H"
b10001 t"
b1 <
b1 ="
b1 w"
b10010 =
b10010 I"
b10010 v"
b10001100100000000000000000 z"
b110000 A
b110000 -"
b110000 O"
b101100 6
b101100 ."
b101100 N"
b101100 q"
b10000 -
b10000 D"
b10000 r"
b10000 z
b100 *
b100 `"
b100 y
b10001 e
b10010 g
b10001 f
b10001 ,
b10001 ?"
b10001 `
b1 )
b1 :"
b1 f"
b1 l"
b1 _
b100010010100110000000000000000 v
b0 0
b0 Y"
b0 o
b10011 3
b10011 C"
b10011 G"
b10011 X"
b10011 r
b10010 1
b10010 B"
b10010 p
b0 +
b0 \"
b0 k
b0 4
b0 j"
b0 s
b1 2
b1 d"
b1 q
0t
b1 i
b1 )"
1j
b101100 Z
b101100 !"
b101100 P"
b101100 w
b101100 ~
b100010001100100000000000000000 x
b1100 $
1!
#625
0!
#650
0X
b1 [
b1 #"
b1 '"
b110100 B
b110100 V"
b110100 p"
b110100 W"
b1001110001000000000000000000 5
b1001110001000000000000000000 U"
b1001110001000000000000000000 9
b1001110001000000000000000000 {"
b10010000010000000000000000001 7
b10010000010000000000000000001 M"
b1 L
b1 b"
b1 e"
b1 k"
b1 s"
b1 c"
b10010 N
b10010 Z"
b10010 ["
b1 V
b1 @"
b1 h"
b1 E"
b1 J
b1 ^"
b1 m"
b1 o"
b1 K
b1 %"
b1 g"
b1 i"
b110100 O
b110100 R"
b110100 S"
b110100 T"
b10011 ?
b10011 H"
b10011 t"
b1 <
b1 ="
b1 w"
b10001 =
b10001 I"
b10001 v"
b10011100010000000000000000 z"
b110100 A
b110100 -"
b110100 O"
b110000 6
b110000 ."
b110000 N"
b110000 q"
b10001 -
b10001 D"
b10001 r"
b10001 z
b1 *
b1 `"
b1 y
b0 e
b10011 g
b10010 f
b10011 ,
b10011 ?"
b10011 `
b0 .
b0 ;"
b0 a
b100010001100100000000000000000 v
b10010 3
b10010 C"
b10010 G"
b10010 X"
b10010 r
b10001 1
b10001 B"
b10001 p
b1 4
b1 j"
b1 s
b0 2
b0 d"
b0 q
b110000 Z
b110000 !"
b110000 P"
b110000 w
b110000 ~
b100010011100010000000000000000 x
b1101 $
1!
#675
0!
#700
b111000 B
b111000 V"
b111000 p"
b111000 W"
b100 8
b100 ""
b100 x"
b10 ]
b10 /"
b10 1"
1Y
0:
09"
0\
02"
b1000001000000000000000000100 5
b1000001000000000000000000100 U"
b1000001000000000000000000100 9
b1000001000000000000000000100 {"
b1000000000000000000000000111 7
b1000000000000000000000000111 M"
b10001 N
b10001 Z"
b10001 ["
b111000 O
b111000 R"
b111000 S"
b111000 T"
b100 >
b100 >"
b100 u"
b10000 ?
b10000 H"
b10000 t"
b0 <
b0 ="
b0 w"
b1000 =
b1000 I"
b1000 v"
b100 D
b1 T
b1 Q
b1 y"
b1 }"
b1 R
b1 |"
b100 0"
b10000010000000000000000001 z"
b111000 A
b111000 -"
b111000 O"
b110100 6
b110100 ."
b110100 N"
b110100 q"
b10011 -
b10011 D"
b10011 r"
b10011 z
b10010 g
b10001 f
b10010 ,
b10010 ?"
b10010 `
b1 .
b1 ;"
b1 a
b100010011100010000000000000000 v
b10001 3
b10001 C"
b10001 G"
b10001 X"
b10001 r
b10011 1
b10011 B"
b10011 p
b111000 Z
b111000 !"
b111000 P"
b110100 w
b110100 ~
b10010000010000000000000000001 x
b1110 $
1!
#725
0!
